R4DSA meetup - Randomisation Inference Statistics: infer methods
…
exam <- read_csv("data/Exam_data.csv")

Rows: 322 Columns: 7
── Column specification ────────────────────────────────────────────────────────
Delimiter: ","
chr (4): ID, CLASS, GENDER, RACE
dbl (3): ENGLISH, MATHS, SCIENCE

ℹ Use `spec()` to retrieve the full column specification for this data.
ℹ Specify the column types or set `show_col_types = FALSE` to quiet this message.

exam

# A tibble: 322 × 7
   ID         CLASS GENDER RACE    ENGLISH MATHS SCIENCE
   <chr>      <chr> <chr>  <chr>     <dbl> <dbl>   <dbl>
 1 Student321 3I    Male   Malay        21     9      15
 2 Student305 3I    Female Malay        24    22      16
 3 Student289 3H    Male   Chinese      26    16      16
 4 Student227 3F    Male   Chinese      27    77      31
 5 Student318 3I    Male   Malay        27    11      25
 6 Student306 3I    Female Malay        31    16      16
 7 Student313 3I    Male   Chinese      31    21      25
 8 Student316 3I    Male   Malay        31    18      27
 9 Student312 3I    Male   Malay        33    19      15
10 Student297 3H    Male   Indian       34    49      37
# … with 312 more rows
…
H1: The mean maths scores of female and male students are different.

For the purpose of this student, 95% confident interval will be used.

specify variables

In the code chunk below, specify() of infer package is used to define the formula and response and explanatory variables.

exam %>% 
  specify(formula = MATHS ~ GENDER)

Response: MATHS (numeric)
Explanatory: GENDER (factor)
# A tibble: 322 × 2
   MATHS GENDER
   <dbl> <fct> 
 1     9 Male  
 2    22 Female
 3    16 Male  
 4    77 Male  
 5    11 Male  
 6    16 Female
 7    21 Male  
 8    18 Male  
 9    19 Male  
10    49 Male  
# … with 312 more rows
…
the explanatory variable is gender.

hypothesize the null

For the purpose of this case study, We set the null hypothesis \(H0: \hatμ_f−\hatμ_m = 0\) by using the hypothesize() infer package. Since we have two samples, female and male students, we set null to be "independence" as we described in Section 9.3.

exam %>% 
  specify(formula = MATHS ~ GENDER) %>% 
  hypothesize(null = "independence")

Response: MATHS (numeric)
Explanatory: GENDER (factor)
Null Hypothesis: independence
# A tibble: 322 × 2
   MATHS GENDER
   <dbl> <fct> 
 1     9 Male  
 2    22 Female
 3    16 Male  
 4    77 Male  
 5    11 Male  
 6    16 Female
 7    21 Male  
 8    18 Male  
 9    19 Male  
10    49 Male  
# … with 312 more rows
…
draw: A value will be sampled from a theoretical distribution with parameter p specified in hypothesize() for each replicate. This option is currently only applicable for testing on one proportion. This generation type was previously called simulate, which has been superseded.

In the code chunk below, we replicates the data 1000 times by using permute method.

set.seed(1234)
exam_permute <- exam %>% 
  specify(formula = MATHS ~ GENDER) %>% 
  hypothesize(null = "independence") %>% 
  generate(reps = 1000, type = "permute")
exam_permute

Response: MATHS (numeric)
Explanatory: GENDER (factor)
Null Hypothesis: independence
# A tibble: 322,000 × 3
# Groups:   replicate [1,000]
   MATHS GENDER replicate
   <dbl> <fct>      <int>
 1    97 Male           1
 2    64 Female         1
 3    66 Male           1
 4    63 Male           1
 5    58 Male           1
 6    74 Female         1
 7    68 Male           1
 8    88 Male           1
 9    47 Male           1
10    87 Male           1
# … with 321,990 more rows
…
In the code chunk below, “diff in means” is used.

set.seed(1234)
null_distribution_maths <- exam %>% 
  specify(formula = MATHS ~ GENDER) %>% 
  hypothesize(null = "independence") %>% 
  generate(reps = 1000, type = "permute") %>%
  calculate(stat = "diff in means", 
            order = c("Female", "Male"))
null_distribution_maths

Response: MATHS (numeric)
Explanatory: GENDER (factor)
Null Hypothesis: independence
# A tibble: 1,000 × 2
   replicate   stat
       <int>  <dbl>
 1         1 -6.12 
 2         2  3.12 
 3         3 -4.13 
 4         4 -6.67 
 5         5  1.46 
 6         6 -1.35 
 7         7  0.467
 8         8  1.64 
 9         9 -1.99 
10        10  1.64 
# … with 990 more rows
…
Response: MATHS (numeric)
# A tibble: 1 × 1
   stat
  <dbl>
1  69.3

specify variables

exam %>% 
  specify(response = MATHS)

Response: MATHS (numeric)
# A tibble: 322 × 1
   MATHS
   <dbl>
 1     9
 2    22
 3    16
 4    77
 5    11
 6    16
 7    21
 8    18
 9    19
10    49
# … with 312 more rows

exam %>% 
  specify(formula = MATHS ~ NULL)

Response: MATHS (numeric)
# A tibble: 322 × 1
   MATHS
   <dbl>
 1     9
 2    22
 3    16
 4    77
 5    11
 6    16
 7    21
 8    18
 9    19
10    49
# … with 312 more rows

generate replicates

exam %>% 
  specify(response = MATHS) %>% 
  generate(reps = 1000, type = "bootstrap")

Response: MATHS (numeric)
# A tibble: 322,000 × 2
# Groups:   replicate [1,000]
   replicate MATHS
       <int> <dbl>
 1         1    66
 2         1    63
 3         1    88
 4         1    79
 5         1    85
 6         1    85
 7         1    77
 8         1    85
 9         1    69
10         1    85
# … with 321,990 more rows

calculate summary statistics

bootstrap_distribution <- exam %>% 
  specify(response = MATHS) %>% 
  generate(reps = 1000) %>% 
  calculate(stat = "mean")

Setting `type = "bootstrap"` in `generate()`.

bootstrap_distribution

Response: MATHS (numeric)
# A tibble: 1,000 × 2
   replicate  stat
       <int> <dbl>
 1         1  68.4
 2         2  68.4
 3         3  68.8
 4         4  69.9
 5         5  71.0
 6         6  70.0
 7         7  69.7
 8         8  69.8
 9         9  68.9
10        10  69.2
# … with 990 more rows
…
